-1152.3331415981922 
-1152.3331415981922 
-1152.3331415981922 
-1152.3331415981922 
-1152.3331415981922 
-1152.3331415981922 
-1152.3331415981922 
-1152.3331415981922 
-1152.3331415981922 
-1152.3331415981922 
-1152.3331415981922 
-1152.3331415981922 
-1152.3331415981922 
-1152.3331415981922 
-1152.3331415981922 
-1152.3331415981922 
-1152.3331415981922 
-1152.3331415981922 
-1152.3331415981922 
-1152.3331415981922 
-1152.3331415981922 
-1152.3331415981922 
-1152.3331415981922 
-1152.3331415981922 
-1152.3331415981922 
-1152.3331415981922 
-1152.3331415981922 
-1152.3331415981922 
-1152.3331415981922 
-1152.3331415981922 
-1152.3331415981922 
-1152.3331415981922 
-1152.3331415981922 
-1152.3331415981922 
-1152.3331415981922 
-1152.3331415981922 
-1152.3331415981922 
-1152.3331415981922 
-1152.3331415981922 
-1152.3331415981922 
-1152.3331415981922 
-1152.3331415981922 
-1152.3331415981922 
-1152.3331415981922 
-1152.3331415981922 
-1152.3331415981922 
-1152.3331415981922 
-1152.3331415981922 
-1152.3331415981922 
-1152.3331415981922 
-1152.3331415981922 
-1152.3331415981922 
-1152.3331415981922 
-1152.3331415981922 
-1152.3331415981922 
-1152.3331415981922 
-1152.3331415981922 
-1152.3331415981922 
-1152.3331415981922 
-1152.3331415981922 
-1152.3331415981922 
-1152.3331415981922 
-1152.3331415981922 
-1152.3331415981922 
