-1151.6171504592733 
-1151.6171504592733 
-1151.6171504592733 
-1151.6171504592733 
-1151.6171504592733 
-1151.6171504592733 
-1151.6171504592733 
-1151.6171504592733 
-1151.6171504592733 
-1151.6171504592733 
-1151.6171504592733 
-1151.6171504592733 
-1151.6171504592733 
-1151.6171504592733 
-1151.6171504592733 
-1151.6171504592733 
-1151.6171504592733 
-1151.6171504592733 
-1151.6171504592733 
-1151.6171504592733 
-1151.6171504592733 
-1151.6171504592733 
-1151.6171504592733 
-1151.6171504592733 
-1151.6171504592733 
-1151.6171504592733 
-1151.6171504592733 
-1151.6171504592733 
-1151.6171504592733 
-1151.6171504592733 
-1151.6171504592733 
-1151.6171504592733 
-1151.6171504592733 
-1151.6171504592733 
-1151.6171504592733 
-1151.6171504592733 
-1151.6171504592733 
-1151.6171504592733 
-1151.6171504592733 
-1151.6171504592733 
-1151.6171504592733 
-1151.6171504592733 
-1151.6171504592733 
-1151.6171504592733 
-1151.6171504592733 
-1151.6171504592733 
-1151.6171504592733 
-1151.6171504592733 
-1151.6171504592733 
-1151.6171504592733 
-1151.6171504592733 
-1151.6171504592733 
-1151.6171504592733 
-1151.6171504592733 
-1151.6171504592733 
-1151.6171504592733 
-1151.6171504592733 
-1151.6171504592733 
-1151.6171504592733 
-1151.6171504592733 
-1151.6171504592733 
-1151.6171504592733 
-1151.6171504592733 
-1151.6171504592733 
