-1049.8498249321804 
824.7202883591189 
-877.2168900613178 
578.2864951089852 
-604.1253023951625 
321.9292538418988 
-393.02634427006814 
165.11605725695227 
-830.6450152349853 
623.720729547689 
-707.8590657554432 
446.5535617802159 
-508.44552923584 
255.16646212415526 
-345.6446768290831 
128.33888506413876 
-685.8108892859116 
493.12477769946884 
-601.7986598424529 
368.9508087395456 
-456.67835924432444 
221.99040876253545 
-322.30115855542397 
107.60131170593678 
-706.3307050471108 
515.5975089937606 
-627.2483628306079 
396.69931900664153 
-484.24498640404323 
245.8859725901157 
-339.35530579090823 
116.216936381545 
-692.5804021628737 
504.4535480953744 
-620.4199042254562 
394.4490325621984 
-485.35275300278516 
248.11962565405338 
-340.2822596335547 
114.03958321985863 
-568.5233893048527 
388.98937065049677 
-520.1527533264042 
312.8187606133377 
-422.45267590281196 
201.33054321326526 
-305.42237349064595 
86.64686999913856 
-486.0870403747015 
310.85215827032897 
-449.92109035835387 
252.808659210846 
-373.4167265246576 
162.5886138222636 
-275.28072837225955 
62.93961828796634 
-494.5129030950736 
316.12528760407685 
-449.95822891745337 
247.14696227267333 
-363.13684254133597 
149.77683111988222 
-262.2711163984012 
51.604332244103325 
