-1046.2749167291345 
821.2695956856535 
-870.04482786877 
571.0682961153032 
-595.0019476666225 
315.56112956737695 
-387.19541619812685 
163.222326363658 
-830.3677046113288 
625.0945058990023 
-707.7325356455904 
448.1116922491034 
-508.44173755643067 
256.675533836086 
-345.3345273595114 
129.27354032496405 
-685.3998550513784 
495.21988892370337 
-603.7038795953248 
373.720152468879 
-460.4538673364732 
227.06560516850453 
-324.72206124750574 
110.15680304440552 
-701.8406239853459 
513.1240421598625 
-623.9431087015803 
395.93154654419754 
-482.80303135030033 
246.74160479807324 
-338.9946286994751 
117.52033685158814 
-686.8373714172035 
500.3069401297183 
-614.7871227531302 
390.7539081410025 
-480.70673653698356 
245.96350598474575 
-337.5501196220793 
113.89582829168616 
-566.0498350667226 
388.28525667612075 
-518.1127360282128 
312.59513415950096 
-420.7572807109317 
201.27979099880605 
-303.8449440062134 
86.82575163552065 
-485.79271479341844 
312.2214087053799 
-449.7688815485369 
254.2454212037019 
-373.1418589824067 
163.712229604169 
-274.61248281578685 
63.73000343387736 
-493.04962613833186 
315.87757812677444 
-447.55534329418845 
245.88219043665967 
-360.1632292912524 
148.70366392441912 
-260.2399249408744 
51.933369260139045 
