-1152.18515484322 
-1152.18515484322 
-1152.18515484322 
-1152.18515484322 
-1152.18515484322 
-1152.18515484322 
-1152.18515484322 
-1152.18515484322 
-1152.18515484322 
-1152.18515484322 
-1152.18515484322 
-1152.18515484322 
-1152.18515484322 
-1152.18515484322 
-1152.18515484322 
-1152.18515484322 
-1152.18515484322 
-1152.18515484322 
-1152.18515484322 
-1152.18515484322 
-1152.18515484322 
-1152.18515484322 
-1152.18515484322 
-1152.18515484322 
-1152.18515484322 
-1152.18515484322 
-1152.18515484322 
-1152.18515484322 
-1152.18515484322 
-1152.18515484322 
-1152.18515484322 
-1152.18515484322 
-1152.18515484322 
-1152.18515484322 
-1152.18515484322 
-1152.18515484322 
-1152.18515484322 
-1152.18515484322 
-1152.18515484322 
-1152.18515484322 
-1152.18515484322 
-1152.18515484322 
-1152.18515484322 
-1152.18515484322 
-1152.18515484322 
-1152.18515484322 
-1152.18515484322 
-1152.18515484322 
-1152.18515484322 
-1152.18515484322 
-1152.18515484322 
-1152.18515484322 
-1152.18515484322 
-1152.18515484322 
-1152.18515484322 
-1152.18515484322 
-1152.18515484322 
-1152.18515484322 
-1152.18515484322 
-1152.18515484322 
-1152.18515484322 
-1152.18515484322 
-1152.18515484322 
-1152.18515484322 
