-1155.3644183417312 
-1155.3644183417312 
-1155.3644183417312 
-1155.3644183417312 
-1155.3644183417312 
-1155.3644183417312 
-1155.3644183417312 
-1155.3644183417312 
-1155.3644183417312 
-1155.3644183417312 
-1155.3644183417312 
-1155.3644183417312 
-1155.3644183417312 
-1155.3644183417312 
-1155.3644183417312 
-1155.3644183417312 
-1155.3644183417312 
-1155.3644183417312 
-1155.3644183417312 
-1155.3644183417312 
-1155.3644183417312 
-1155.3644183417312 
-1155.3644183417312 
-1155.3644183417312 
-1155.3644183417312 
-1155.3644183417312 
-1155.3644183417312 
-1155.3644183417312 
-1155.3644183417312 
-1155.3644183417312 
-1155.3644183417312 
-1155.3644183417312 
-1155.3644183417312 
-1155.3644183417312 
-1155.3644183417312 
-1155.3644183417312 
-1155.3644183417312 
-1155.3644183417312 
-1155.3644183417312 
-1155.3644183417312 
-1155.3644183417312 
-1155.3644183417312 
-1155.3644183417312 
-1155.3644183417312 
-1155.3644183417312 
-1155.3644183417312 
-1155.3644183417312 
-1155.3644183417312 
-1155.3644183417312 
-1155.3644183417312 
-1155.3644183417312 
-1155.3644183417312 
-1155.3644183417312 
-1155.3644183417312 
-1155.3644183417312 
-1155.3644183417312 
-1155.3644183417312 
-1155.3644183417312 
-1155.3644183417312 
-1155.3644183417312 
-1155.3644183417312 
-1155.3644183417312 
-1155.3644183417312 
-1155.3644183417312 
