-1048.6549620489052 
823.5871689277291 
-875.0249447007732 
575.9542701191458 
-601.013810881672 
319.298609381874 
-390.3088976393851 
163.39015015486524 
-830.449670017315 
623.9568951421447 
-707.652805252972 
446.8591632293168 
-508.4353026611188 
255.75562028834267 
-345.87979921587527 
128.98356021314348 
-685.5304612262647 
493.56888377872457 
-602.2808104610149 
370.44407411093414 
-458.20957950621977 
224.23130631165256 
-324.05085871317 
109.45051574520615 
-704.4344147569128 
514.441880046799 
-626.1488067834588 
396.6213784630579 
-484.21920406278184 
246.62092947047944 
-339.73037741535194 
116.93587543523367 
-689.805617600662 
502.3534026172227 
-618.2662629847097 
393.2023169385128 
-484.08313465288234 
247.61518637130183 
-339.5253394614057 
113.83604458026173 
-566.9745894031829 
388.05993225972844 
-519.0795950428746 
312.55384336048195 
-422.07618883860744 
201.643615204059 
-305.40704720358735 
87.08499387840244 
-486.11422186621974 
311.352447015809 
-450.03073406899466 
253.4543018480743 
-373.72839953942855 
163.461307547672 
-275.78687952726125 
63.90516413227457 
-494.613664793801 
316.5277054521701 
-449.68520557628807 
247.10960803849582 
-362.55308685103665 
149.70138764476923 
-261.9524467357574 
52.00349407928872 
