-1154.8562760764037 
-1154.856276076404 
-1154.856276076404 
-1154.856276076404 
-1154.856276076404 
-1154.856276076404 
-1154.856276076404 
-1154.856276076404 
-1154.856276076404 
-1154.856276076404 
-1154.856276076404 
-1154.856276076404 
-1154.856276076404 
-1154.856276076404 
-1154.856276076404 
-1154.856276076404 
-1154.856276076404 
-1154.856276076404 
-1154.856276076404 
-1154.856276076404 
-1154.856276076404 
-1154.856276076404 
-1154.856276076404 
-1154.856276076404 
-1154.856276076404 
-1154.856276076404 
-1154.856276076404 
-1154.856276076404 
-1154.856276076404 
-1154.856276076404 
-1154.856276076404 
-1154.856276076404 
-1154.856276076404 
-1154.856276076404 
-1154.856276076404 
-1154.856276076404 
-1154.856276076404 
-1154.856276076404 
-1154.856276076404 
-1154.856276076404 
-1154.856276076404 
-1154.856276076404 
-1154.856276076404 
-1154.856276076404 
-1154.856276076404 
-1154.856276076404 
-1154.856276076404 
-1154.856276076404 
-1154.856276076404 
-1154.856276076404 
-1154.856276076404 
-1154.856276076404 
-1154.856276076404 
-1154.856276076404 
-1154.856276076404 
-1154.856276076404 
-1154.856276076404 
-1154.856276076404 
-1154.856276076404 
-1154.856276076404 
-1154.856276076404 
-1154.856276076404 
-1154.856276076404 
-1154.856276076404 
