-1152.2162893267214 
-1152.2162893267214 
-1152.2162893267214 
-1152.2162893267214 
-1152.2162893267214 
-1152.2162893267214 
-1152.2162893267214 
-1152.2162893267214 
-1152.2162893267214 
-1152.2162893267214 
-1152.2162893267214 
-1152.2162893267214 
-1152.2162893267214 
-1152.2162893267214 
-1152.2162893267214 
-1152.2162893267214 
-1152.2162893267214 
-1152.2162893267214 
-1152.2162893267214 
-1152.2162893267214 
-1152.2162893267214 
-1152.2162893267214 
-1152.2162893267214 
-1152.2162893267214 
-1152.2162893267214 
-1152.2162893267214 
-1152.2162893267214 
-1152.2162893267214 
-1152.2162893267214 
-1152.2162893267214 
-1152.2162893267214 
-1152.2162893267214 
-1152.2162893267214 
-1152.2162893267214 
-1152.2162893267214 
-1152.2162893267214 
-1152.2162893267214 
-1152.2162893267214 
-1152.2162893267214 
-1152.2162893267214 
-1152.2162893267214 
-1152.2162893267214 
-1152.2162893267214 
-1152.2162893267214 
-1152.2162893267214 
-1152.2162893267214 
-1152.2162893267214 
-1152.2162893267214 
-1152.2162893267214 
-1152.2162893267214 
-1152.2162893267214 
-1152.2162893267214 
-1152.2162893267214 
-1152.2162893267214 
-1152.2162893267214 
-1152.2162893267214 
-1152.2162893267214 
-1152.2162893267214 
-1152.2162893267214 
-1152.2162893267214 
-1152.2162893267214 
-1152.2162893267214 
-1152.2162893267214 
-1152.2162893267214 
