-1049.1021847537222 
824.0489899968408 
-875.972115205574 
576.9453957905423 
-602.2400148996134 
320.168242938854 
-391.06012327733987 
163.63793978320308 
-830.5884875151617 
623.928628504431 
-707.8239521856865 
446.79966695390306 
-508.4526334519139 
255.4301193701491 
-345.6119152394966 
128.48835781550153 
-685.7955503612727 
493.50359837916 
-602.1565060994287 
369.83986622946486 
-457.5362539543007 
223.2178255860293 
-323.22854105709547 
108.59966236578543 
-705.3686385736991 
514.9990808242492 
-626.5697051931124 
396.4814037281915 
-483.94930683099545 
245.97732517750228 
-339.25838486698535 
116.40413485054192 
-691.0248321829177 
503.2038743297992 
-618.9913864288437 
393.37101087496296 
-484.1109377760955 
247.23765544496354 
-339.2673676391978 
113.4521273867372 
-567.5600774314702 
388.31727563638105 
-519.2812776156392 
312.2771041606223 
-421.72351368828424 
200.9257944266743 
-304.82761693085956 
86.39393987301816 
-485.9312657074008 
310.93512285867394 
-449.715416464643 
252.83464003330036 
-373.17565958424984 
162.62433547281617 
-275.10381743156245 
63.08315180106669 
-494.3732142119185 
316.1260966240909 
-449.5042108933527 
246.7453040508849 
-362.3377223313883 
149.21913997207312 
-261.574638242536 
51.39034468015561 
