-1151.5696408333508 
-1151.5696408333508 
-1151.5696408333508 
-1151.5696408333508 
-1151.5696408333508 
-1151.5696408333508 
-1151.5696408333508 
-1151.5696408333508 
-1151.5696408333508 
-1151.5696408333508 
-1151.5696408333508 
-1151.5696408333508 
-1151.5696408333508 
-1151.5696408333508 
-1151.5696408333508 
-1151.5696408333508 
-1151.5696408333508 
-1151.5696408333508 
-1151.5696408333508 
-1151.5696408333508 
-1151.5696408333508 
-1151.5696408333508 
-1151.5696408333508 
-1151.5696408333508 
-1151.5696408333508 
-1151.5696408333508 
-1151.5696408333508 
-1151.5696408333508 
-1151.5696408333508 
-1151.5696408333508 
-1151.5696408333508 
-1151.5696408333508 
-1151.5696408333508 
-1151.5696408333508 
-1151.5696408333508 
-1151.5696408333508 
-1151.5696408333508 
-1151.5696408333508 
-1151.5696408333508 
-1151.5696408333508 
-1151.5696408333508 
-1151.5696408333508 
-1151.5696408333508 
-1151.5696408333508 
-1151.5696408333508 
-1151.5696408333508 
-1151.5696408333508 
-1151.5696408333508 
-1151.5696408333508 
-1151.5696408333508 
-1151.5696408333508 
-1151.5696408333508 
-1151.5696408333508 
-1151.5696408333508 
-1151.5696408333508 
-1151.5696408333508 
-1151.5696408333508 
-1151.5696408333508 
-1151.5696408333508 
-1151.5696408333508 
-1151.5696408333508 
-1151.5696408333508 
-1151.5696408333508 
-1151.5696408333508 
