-1150.6475036100303 
-1150.6475036100303 
-1150.6475036100303 
-1150.6475036100303 
-1150.6475036100303 
-1150.6475036100303 
-1150.6475036100303 
-1150.6475036100303 
-1150.6475036100303 
-1150.6475036100303 
-1150.6475036100303 
-1150.6475036100303 
-1150.6475036100303 
-1150.6475036100303 
-1150.6475036100303 
-1150.6475036100303 
-1150.6475036100303 
-1150.6475036100303 
-1150.6475036100303 
-1150.6475036100303 
-1150.6475036100303 
-1150.6475036100303 
-1150.6475036100303 
-1150.6475036100303 
-1150.6475036100303 
-1150.6475036100303 
-1150.6475036100303 
-1150.6475036100303 
-1150.6475036100303 
-1150.6475036100303 
-1150.6475036100303 
-1150.6475036100303 
-1150.6475036100303 
-1150.6475036100303 
-1150.6475036100303 
-1150.6475036100303 
-1150.6475036100303 
-1150.6475036100303 
-1150.6475036100303 
-1150.6475036100303 
-1150.6475036100303 
-1150.6475036100303 
-1150.6475036100303 
-1150.6475036100303 
-1150.6475036100303 
-1150.6475036100303 
-1150.6475036100303 
-1150.6475036100303 
-1150.6475036100303 
-1150.6475036100303 
-1150.6475036100303 
-1150.6475036100303 
-1150.6475036100303 
-1150.6475036100303 
-1150.6475036100303 
-1150.6475036100303 
-1150.6475036100303 
-1150.6475036100303 
-1150.6475036100303 
-1150.6475036100303 
-1150.6475036100303 
-1150.6475036100303 
-1150.6475036100303 
-1150.6475036100303 
