-1151.471631953185 
-1151.471631953185 
-1151.471631953185 
-1151.471631953185 
-1151.471631953185 
-1151.471631953185 
-1151.471631953185 
-1151.471631953185 
-1151.471631953185 
-1151.471631953185 
-1151.471631953185 
-1151.471631953185 
-1151.471631953185 
-1151.471631953185 
-1151.471631953185 
-1151.471631953185 
-1151.471631953185 
-1151.471631953185 
-1151.471631953185 
-1151.471631953185 
-1151.471631953185 
-1151.471631953185 
-1151.471631953185 
-1151.471631953185 
-1151.471631953185 
-1151.471631953185 
-1151.471631953185 
-1151.471631953185 
-1151.471631953185 
-1151.471631953185 
-1151.471631953185 
-1151.471631953185 
-1151.471631953185 
-1151.471631953185 
-1151.471631953185 
-1151.471631953185 
-1151.471631953185 
-1151.471631953185 
-1151.471631953185 
-1151.471631953185 
-1151.471631953185 
-1151.471631953185 
-1151.471631953185 
-1151.471631953185 
-1151.471631953185 
-1151.471631953185 
-1151.471631953185 
-1151.471631953185 
-1151.471631953185 
-1151.471631953185 
-1151.471631953185 
-1151.471631953185 
-1151.471631953185 
-1151.471631953185 
-1151.471631953185 
-1151.471631953185 
-1151.471631953185 
-1151.471631953185 
-1151.471631953185 
-1151.471631953185 
-1151.471631953185 
-1151.471631953185 
-1151.471631953185 
-1151.471631953185 
