-1152.1830209286754 
-1152.1830209286754 
-1152.1830209286754 
-1152.1830209286754 
-1152.1830209286754 
-1152.1830209286754 
-1152.1830209286754 
-1152.1830209286754 
-1152.1830209286754 
-1152.1830209286754 
-1152.1830209286754 
-1152.1830209286754 
-1152.1830209286754 
-1152.1830209286754 
-1152.1830209286754 
-1152.1830209286754 
-1152.1830209286754 
-1152.1830209286754 
-1152.1830209286754 
-1152.1830209286754 
-1152.1830209286754 
-1152.1830209286754 
-1152.1830209286754 
-1152.1830209286754 
-1152.1830209286754 
-1152.1830209286754 
-1152.1830209286754 
-1152.1830209286754 
-1152.1830209286754 
-1152.1830209286754 
-1152.1830209286754 
-1152.1830209286754 
-1152.1830209286754 
-1152.1830209286754 
-1152.1830209286754 
-1152.1830209286754 
-1152.1830209286754 
-1152.1830209286754 
-1152.1830209286754 
-1152.1830209286754 
-1152.1830209286754 
-1152.1830209286754 
-1152.1830209286754 
-1152.1830209286754 
-1152.1830209286754 
-1152.1830209286754 
-1152.1830209286754 
-1152.1830209286754 
-1152.1830209286754 
-1152.1830209286754 
-1152.1830209286754 
-1152.1830209286754 
-1152.1830209286754 
-1152.1830209286754 
-1152.1830209286754 
-1152.1830209286754 
-1152.1830209286754 
-1152.1830209286754 
-1152.1830209286754 
-1152.1830209286754 
-1152.1830209286754 
-1152.1830209286754 
-1152.1830209286754 
-1152.1830209286754 
