-1048.6864226517887 
823.6543394481339 
-875.1659012800988 
576.0885923987355 
-601.092181048404 
319.2225146047027 
-390.1006638770647 
163.08790496390685 
-830.5257708517598 
624.0419124755531 
-707.7792022473589 
446.96272944588145 
-508.49180166847486 
255.68472271709638 
-345.7016905869533 
128.70872943609623 
-685.6721641428973 
493.6730510195323 
-602.3566688058734 
370.4381104746957 
-458.136342677234 
224.0583380514371 
-323.8314246201959 
109.19555842392533 
-704.67050502859 
514.5857369446489 
-626.1714196430769 
396.4639940908851 
-483.9293669573502 
246.22576407852796 
-339.34680647385636 
116.61927951802963 
-690.1005827711763 
502.5184537036067 
-618.2465064766395 
392.932219523232 
-483.6241005624041 
247.0243927892953 
-338.95684695200185 
113.37938113416573 
-567.1534361413871 
388.11531470868977 
-518.9647722895473 
312.2088780008011 
-421.56018442951506 
201.00227113707825 
-304.77713668312987 
86.53973231109686 
-486.0585301487712 
311.2102228054191 
-449.7816155952344 
253.04839806322286 
-373.21665472164494 
162.86503308507582 
-275.2089242601984 
63.385091044503824 
-494.45566073325267 
316.3013715417654 
-449.38049764296716 
246.6771743641877 
-362.0374689307375 
149.11500931909643 
-261.39125400773105 
51.50515071316774 
