-1049.1497174743013 
824.0634379860306 
-875.974758466677 
576.9741927814928 
-602.3750336458795 
320.44398048097423 
-391.48027451687784 
164.11360896981347 
-830.4789757210814 
623.8001928348592 
-707.6929735073711 
446.6821939226686 
-508.40488253223856 
255.47659793927022 
-345.7712124115081 
128.7128465141289 
-685.5680851038196 
493.2915224327782 
-601.9907847411146 
369.7233507319203 
-457.4908750576964 
223.2300889925128 
-323.2955305113149 
108.68248203448142 
-705.1467774616465 
514.8385915085219 
-626.5355234892108 
396.5838196309544 
-484.1847571371888 
246.2819468829677 
-339.57206268230294 
116.6437733246621 
-690.8568537463375 
503.1226949620616 
-619.080816030357 
393.6491585750869 
-484.56860017571915 
247.79228120490183 
-339.8309842528329 
113.91057704801918 
-567.4691545476768 
388.2952069604683 
-519.3965345607744 
312.542046409021 
-422.13798964038284 
201.42946562965997 
-305.36033398585715 
86.86486900776168 
-485.95525603173394 
310.9926029083143 
-449.8504235063092 
253.05170753663887 
-373.48473909839214 
162.99054414221462 
-275.5010077033521 
63.45392517908936 
-494.4651763157397 
316.246614437003 
-449.6961905168041 
247.01501662003488 
-362.6964473674678 
149.63074252337967 
-262.00877309748466 
51.78362697600126 
