-1047.9708946982382 
822.9794739669196 
-873.8188927127982 
574.6690324962016 
-599.2043802773608 
317.69644702397966 
-388.60516636623584 
162.35715334448247 
-830.4129829049521 
624.2263301274168 
-707.7025613464718 
447.21445667309956 
-508.5009885129488 
256.00227561240285 
-345.70760800647656 
128.92573547263078 
-685.5274976739979 
493.98808613110356 
-602.6711865529714 
371.3392225090945 
-458.95672257097715 
225.20003231063606 
-324.52790495956606 
109.86870419848658 
-703.7077794503257 
514.0268689007817 
-625.5230785817239 
396.3219384638412 
-483.6862093510154 
246.38720565972721 
-339.2679412473342 
116.82493046265256 
-688.8147579780706 
501.5667398922768 
-617.0926056455346 
392.17329039275586 
-482.7013448059121 
246.5271129764261 
-338.3352251362928 
113.23694308410904 
-566.5042269525768 
387.80391208664724 
-518.4531876546604 
312.08219551338334 
-421.23382156097756 
201.02723352334408 
-304.55925251149864 
86.64237803432042 
-485.9430503247954 
311.3936204191034 
-449.6992142117072 
253.27761874373863 
-373.1819674525839 
163.1318589207449 
-275.1887629272579 
63.630184992220926 
-494.14427462458525 
316.21245750431433 
-448.9043967762165 
246.39682176375786 
-361.43321494349186 
148.83967994423242 
-260.9459413044227 
51.505776461127205 
