-1152.3018118142793 
-1152.3018118142793 
-1152.3018118142793 
-1152.3018118142793 
-1152.3018118142793 
-1152.3018118142793 
-1152.3018118142793 
-1152.3018118142793 
-1152.3018118142793 
-1152.3018118142793 
-1152.3018118142793 
-1152.3018118142793 
-1152.3018118142793 
-1152.3018118142793 
-1152.3018118142793 
-1152.3018118142793 
-1152.3018118142793 
-1152.3018118142793 
-1152.3018118142793 
-1152.3018118142793 
-1152.3018118142793 
-1152.3018118142793 
-1152.3018118142793 
-1152.3018118142793 
-1152.3018118142793 
-1152.3018118142793 
-1152.3018118142793 
-1152.3018118142793 
-1152.3018118142793 
-1152.3018118142793 
-1152.3018118142793 
-1152.3018118142793 
-1152.3018118142793 
-1152.3018118142793 
-1152.3018118142793 
-1152.3018118142793 
-1152.3018118142793 
-1152.3018118142793 
-1152.3018118142793 
-1152.3018118142793 
-1152.3018118142793 
-1152.3018118142793 
-1152.3018118142793 
-1152.3018118142793 
-1152.3018118142793 
-1152.3018118142793 
-1152.3018118142793 
-1152.3018118142793 
-1152.3018118142793 
-1152.3018118142793 
-1152.3018118142793 
-1152.3018118142793 
-1152.3018118142793 
-1152.3018118142793 
-1152.3018118142793 
-1152.3018118142793 
-1152.3018118142793 
-1152.3018118142793 
-1152.3018118142793 
-1152.3018118142793 
-1152.3018118142793 
-1152.3018118142793 
-1152.3018118142793 
-1152.3018118142793 
