-1047.9767898442124 
822.8991930401182 
-874.0457721965955 
575.1115470703323 
-600.3069699327075 
319.2111754794689 
-390.603239721543 
164.1320700263516 
-829.8984338223588 
623.5343143048811 
-707.134575581918 
446.6059914643622 
-508.2823893016678 
256.0057285364263 
-346.1854345725949 
129.42056048659904 
-684.8994948630419 
493.2279441139084 
-602.0788033322647 
370.68527584590026 
-458.56857576607285 
224.82787539250455 
-324.42343540187557 
109.68497256724626 
-703.7673118275399 
514.1301857325791 
-626.0728684895153 
397.0687472134009 
-484.81215557732264 
247.42023565566984 
-340.24468306322706 
117.26994645862175 
-689.9496101912353 
502.77294934825295 
-618.7817999174309 
394.0770192412275 
-484.9549242618511 
248.59524860523106 
-340.19019799226385 
114.35367496528873 
-568.7910788347851 
389.9545558284347 
-520.7305340451855 
314.17096026106657 
-423.33978885473107 
202.77923725165283 
-306.1319294639835 
87.68256126274225 
-489.2552056617741 
314.37022970488306 
-452.4667875283792 
255.4878691723406 
-375.11463031825997 
164.5681511399543 
-276.48271904358097 
64.57919318357756 
-497.8612868234453 
319.58375405509923 
-452.0572530373333 
248.9952747301996 
-363.7718654021278 
150.70153279956912 
-262.66455419742647 
52.83692858835077 
