-1154.184916098553 
-1154.184916098553 
-1154.184916098553 
-1154.184916098553 
-1154.184916098553 
-1154.184916098553 
-1154.184916098553 
-1154.184916098553 
-1154.184916098553 
-1154.184916098553 
-1154.184916098553 
-1154.184916098553 
-1154.184916098553 
-1154.184916098553 
-1154.184916098553 
-1154.184916098553 
-1154.184916098553 
-1154.184916098553 
-1154.184916098553 
-1154.184916098553 
-1154.184916098553 
-1154.184916098553 
-1154.184916098553 
-1154.184916098553 
-1154.184916098553 
-1154.184916098553 
-1154.184916098553 
-1154.184916098553 
-1154.184916098553 
-1154.184916098553 
-1154.184916098553 
-1154.184916098553 
-1154.184916098553 
-1154.184916098553 
-1154.184916098553 
-1154.184916098553 
-1154.184916098553 
-1154.184916098553 
-1154.184916098553 
-1154.184916098553 
-1154.184916098553 
-1154.184916098553 
-1154.184916098553 
-1154.184916098553 
-1154.184916098553 
-1154.184916098553 
-1154.184916098553 
-1154.184916098553 
-1154.184916098553 
-1154.184916098553 
-1154.184916098553 
-1154.184916098553 
-1154.184916098553 
-1154.184916098553 
-1154.184916098553 
-1154.184916098553 
-1154.184916098553 
-1154.184916098553 
-1154.184916098553 
-1154.184916098553 
-1154.184916098553 
-1154.184916098553 
-1154.184916098553 
-1154.184916098553 
