-1045.6208864381606 
820.5837813498865 
-869.0464061457436 
570.0521083083006 
-594.0023924665419 
315.1169087366012 
-387.29332711101506 
163.97241639896362 
-829.7993109695446 
624.5949972542743 
-707.1340616520522 
447.7740881591872 
-508.31995273840414 
257.06090215309496 
-345.91627880922624 
130.009128404374 
-684.7699843662651 
494.8423391167978 
-603.5175819192566 
374.0605989647679 
-461.11369096794573 
228.09884874094385 
-325.61933614814586 
110.82487898838744 
-701.136301679794 
512.8211522645196 
-624.017684523794 
396.62498501179914 
-483.76596414806045 
247.94287588333708 
-339.9412137620715 
118.19838172472384 
-686.8409365600802 
500.67217400654954 
-615.4534860103407 
391.93674346815277 
-482.04920086741186 
247.45226579671203 
-338.73114917262774 
114.80066497185622 
-567.859546049316 
390.22834391050884 
-520.0032092163857 
314.65479251368083 
-422.7182379156328 
203.22478621175566 
-305.3839351681495 
88.02995190938697 
-489.23138059723516 
315.5733534830728 
-452.69069761329496 
256.9113595713213 
-375.3570367054582 
165.71971575160828 
-276.2007557912415 
65.0948481795868 
-496.5814195326094 
319.28780989467117 
-450.45968127472383 
248.42683725335104 
-362.1745784055983 
150.5074907965709 
-261.73404605647164 
53.38317534924016 
