-1049.321744304434 
824.2258995459114 
-876.2831890979829 
577.3024644082282 
-602.8138688215686 
320.8199385792344 
-391.8721828979565 
164.37037514868544 
-830.5138222849992 
623.7733305861769 
-707.7248517591328 
446.6408943836038 
-508.4069586818707 
255.39701641250602 
-345.7436865774926 
128.63150698006123 
-685.6061381094661 
493.22845771945646 
-601.9218049020051 
369.51397307215444 
-457.2772926349484 
222.92028280023862 
-323.05687414911733 
108.43264842137062 
-705.3892948178934 
514.9817513477182 
-626.6771853191407 
396.5916866410666 
-484.19360019218186 
246.1919845696675 
-339.536056238753 
116.56057219874481 
-691.2024460925667 
503.3820348235161 
-619.3606318775386 
393.81877958580054 
-484.7561127457195 
247.88405766255158 
-339.9620073348649 
113.96248715446276 
-567.632670899345 
388.382260106798 
-519.5202157989411 
312.57328882433836 
-422.20274368683977 
201.41064171778245 
-305.39089730845154 
86.82794108319011 
-485.89213326728674 
310.87459165088603 
-449.8056253766878 
252.95516414477555 
-373.4554017173577 
162.89742684386874 
-275.4630488939725 
63.34650743026517 
-494.3919448198783 
316.14265805442346 
-449.70572535723267 
247.0156145529413 
-362.7950946463771 
149.67421976384438 
-262.09117827097987 
51.7609411606027 
