-1152.1914972027935 
-1152.1914972027935 
-1152.1914972027935 
-1152.1914972027935 
-1152.1914972027935 
-1152.1914972027935 
-1152.1914972027935 
-1152.1914972027935 
-1152.1914972027935 
-1152.1914972027935 
-1152.1914972027935 
-1152.1914972027935 
-1152.1914972027935 
-1152.1914972027935 
-1152.1914972027935 
-1152.1914972027935 
-1152.1914972027935 
-1152.1914972027935 
-1152.1914972027935 
-1152.1914972027935 
-1152.1914972027935 
-1152.1914972027935 
-1152.1914972027935 
-1152.1914972027935 
-1152.1914972027935 
-1152.1914972027935 
-1152.1914972027935 
-1152.1914972027935 
-1152.1914972027935 
-1152.1914972027935 
-1152.1914972027935 
-1152.1914972027935 
-1152.1914972027935 
-1152.1914972027935 
-1152.1914972027935 
-1152.1914972027935 
-1152.1914972027935 
-1152.1914972027935 
-1152.1914972027935 
-1152.1914972027935 
-1152.1914972027935 
-1152.1914972027935 
-1152.1914972027935 
-1152.1914972027935 
-1152.1914972027935 
-1152.1914972027935 
-1152.1914972027935 
-1152.1914972027935 
-1152.1914972027935 
-1152.1914972027935 
-1152.1914972027935 
-1152.1914972027935 
-1152.1914972027935 
-1152.1914972027935 
-1152.1914972027935 
-1152.1914972027935 
-1152.1914972027935 
-1152.1914972027935 
-1152.1914972027935 
-1152.1914972027935 
-1152.1914972027935 
-1152.1914972027935 
-1152.1914972027935 
-1152.1914972027935 
