-1149.6610416067115 
-1149.6610416067115 
-1149.6610416067117 
-1149.6610416067117 
-1149.6610416067117 
-1149.6610416067117 
-1149.6610416067117 
-1149.6610416067117 
-1149.6610416067117 
-1149.6610416067117 
-1149.6610416067117 
-1149.6610416067117 
-1149.6610416067117 
-1149.6610416067117 
-1149.6610416067117 
-1149.6610416067117 
-1149.6610416067117 
-1149.6610416067117 
-1149.6610416067117 
-1149.6610416067117 
-1149.6610416067117 
-1149.6610416067117 
-1149.6610416067117 
-1149.6610416067117 
-1149.6610416067117 
-1149.6610416067117 
-1149.6610416067117 
-1149.6610416067117 
-1149.6610416067117 
-1149.6610416067117 
-1149.6610416067117 
-1149.6610416067117 
-1149.6610416067117 
-1149.6610416067117 
-1149.6610416067117 
-1149.6610416067117 
-1149.6610416067117 
-1149.6610416067117 
-1149.6610416067117 
-1149.6610416067117 
-1149.6610416067117 
-1149.6610416067117 
-1149.6610416067117 
-1149.6610416067117 
-1149.6610416067117 
-1149.6610416067117 
-1149.6610416067117 
-1149.6610416067117 
-1149.6610416067117 
-1149.6610416067117 
-1149.6610416067117 
-1149.6610416067117 
-1149.6610416067117 
-1149.6610416067117 
-1149.6610416067117 
-1149.6610416067117 
-1149.6610416067117 
-1149.6610416067117 
-1149.6610416067117 
-1149.6610416067117 
-1149.6610416067117 
-1149.6610416067117 
-1149.6610416067117 
-1149.6610416067117 
