-1160.8499949081556 
-1160.8499949081556 
-1160.8499949081556 
-1160.8499949081556 
-1160.8499949081556 
-1160.8499949081556 
-1160.8499949081556 
-1160.8499949081556 
-1160.8499949081556 
-1160.8499949081556 
-1160.8499949081556 
-1160.8499949081556 
-1160.8499949081556 
-1160.8499949081556 
-1160.8499949081556 
-1160.8499949081556 
-1160.8499949081556 
-1160.8499949081556 
-1160.8499949081556 
-1160.8499949081556 
-1160.8499949081556 
-1160.8499949081556 
-1160.8499949081556 
-1160.8499949081556 
-1160.8499949081556 
-1160.8499949081556 
-1160.8499949081556 
-1160.8499949081556 
-1160.8499949081556 
-1160.8499949081556 
-1160.8499949081556 
-1160.8499949081556 
-1160.8499949081556 
-1160.8499949081556 
-1160.8499949081556 
-1160.8499949081556 
-1160.8499949081556 
-1160.8499949081556 
-1160.8499949081556 
-1160.8499949081556 
-1160.8499949081556 
-1160.8499949081556 
-1160.8499949081556 
-1160.8499949081556 
-1160.8499949081556 
-1160.8499949081556 
-1160.8499949081556 
-1160.8499949081556 
-1160.8499949081556 
-1160.8499949081556 
-1160.8499949081556 
-1160.8499949081556 
-1160.8499949081556 
-1160.8499949081556 
-1160.8499949081556 
-1160.8499949081556 
-1160.8499949081556 
-1160.8499949081556 
-1160.8499949081556 
-1160.8499949081556 
-1160.8499949081556 
-1160.8499949081556 
-1160.8499949081556 
-1160.8499949081556 
