-1154.2167185961416 
-1154.2167185961416 
-1154.2167185961416 
-1154.2167185961416 
-1154.2167185961416 
-1154.2167185961416 
-1154.2167185961416 
-1154.2167185961416 
-1154.2167185961416 
-1154.2167185961416 
-1154.2167185961416 
-1154.2167185961416 
-1154.2167185961416 
-1154.2167185961416 
-1154.2167185961416 
-1154.2167185961416 
-1154.2167185961416 
-1154.2167185961416 
-1154.2167185961416 
-1154.2167185961416 
-1154.2167185961416 
-1154.2167185961416 
-1154.2167185961416 
-1154.2167185961416 
-1154.2167185961416 
-1154.2167185961416 
-1154.2167185961416 
-1154.2167185961416 
-1154.2167185961416 
-1154.2167185961416 
-1154.2167185961416 
-1154.2167185961416 
-1154.2167185961416 
-1154.2167185961416 
-1154.2167185961416 
-1154.2167185961416 
-1154.2167185961416 
-1154.2167185961416 
-1154.2167185961416 
-1154.2167185961416 
-1154.2167185961416 
-1154.2167185961416 
-1154.2167185961416 
-1154.2167185961416 
-1154.2167185961416 
-1154.2167185961416 
-1154.2167185961416 
-1154.2167185961416 
-1154.2167185961416 
-1154.2167185961416 
-1154.2167185961416 
-1154.2167185961416 
-1154.2167185961416 
-1154.2167185961416 
-1154.2167185961416 
-1154.2167185961416 
-1154.2167185961416 
-1154.2167185961416 
-1154.2167185961416 
-1154.2167185961416 
-1154.2167185961416 
-1154.2167185961416 
-1154.2167185961416 
-1154.2167185961416 
