-1047.2856890101655 
822.3282953585991 
-872.3929045816313 
573.1775349605682 
-597.2407616441199 
316.25343002933437 
-387.3319817516668 
162.0712216396704 
-830.4451997601184 
624.594443900726 
-707.758828318634 
447.60932601745094 
-508.56321174928064 
256.3535216560574 
-345.65906318481206 
129.10987898913515 
-685.5775710006691 
494.5359872838501 
-603.16123322121 
372.40582682860133 
-459.81276305329266 
226.2990097767821 
-325.0238735820078 
110.30065497347522 
-702.9528386544421 
513.6598101664164 
-624.9364719156209 
396.19125607698686 
-483.3553399465875 
246.48931263520117 
-339.12099202635716 
117.05447155760855 
-687.8173534149419 
500.86739845976297 
-616.0329128482447 
391.44014587685217 
-481.7120803353796 
246.0270416337912 
-337.7554620914683 
113.2781678188492 
-566.1430442279845 
387.78247046265494 
-518.1241565348903 
312.0968945593746 
-420.93274513708207 
201.06250481664608 
-304.28636595715346 
86.73278708139222 
-485.93269985314436 
311.71753573809053 
-449.701379810358 
253.59607020061907 
-373.14000760965376 
163.36196422025336 
-275.0268145222363 
63.73337379594082 
-493.8089667050285 
316.13602314708794 
-448.3937397042691 
246.1123340337871 
-360.77562925493294 
148.5466123883129 
-260.44753404270284 
51.50825144672673 
