-1151.4943346021678 
-1151.494334602168 
-1151.494334602168 
-1151.494334602168 
-1151.494334602168 
-1151.494334602168 
-1151.494334602168 
-1151.494334602168 
-1151.494334602168 
-1151.494334602168 
-1151.494334602168 
-1151.494334602168 
-1151.494334602168 
-1151.494334602168 
-1151.494334602168 
-1151.494334602168 
-1151.494334602168 
-1151.494334602168 
-1151.494334602168 
-1151.494334602168 
-1151.494334602168 
-1151.494334602168 
-1151.494334602168 
-1151.494334602168 
-1151.494334602168 
-1151.494334602168 
-1151.494334602168 
-1151.494334602168 
-1151.494334602168 
-1151.494334602168 
-1151.494334602168 
-1151.494334602168 
-1151.494334602168 
-1151.494334602168 
-1151.494334602168 
-1151.494334602168 
-1151.494334602168 
-1151.494334602168 
-1151.494334602168 
-1151.494334602168 
-1151.494334602168 
-1151.494334602168 
-1151.494334602168 
-1151.494334602168 
-1151.494334602168 
-1151.494334602168 
-1151.494334602168 
-1151.494334602168 
-1151.494334602168 
-1151.494334602168 
-1151.494334602168 
-1151.494334602168 
-1151.494334602168 
-1151.494334602168 
-1151.494334602168 
-1151.494334602168 
-1151.494334602168 
-1151.494334602168 
-1151.494334602168 
-1151.494334602168 
-1151.494334602168 
-1151.494334602168 
-1151.494334602168 
-1151.494334602168 
