-1151.7172176915037 
-1151.7172176915037 
-1151.7172176915037 
-1151.7172176915037 
-1151.7172176915037 
-1151.7172176915037 
-1151.7172176915037 
-1151.7172176915037 
-1151.7172176915037 
-1151.7172176915037 
-1151.7172176915037 
-1151.7172176915037 
-1151.7172176915037 
-1151.7172176915037 
-1151.7172176915037 
-1151.7172176915037 
-1151.7172176915037 
-1151.7172176915037 
-1151.7172176915037 
-1151.7172176915037 
-1151.7172176915037 
-1151.7172176915037 
-1151.7172176915037 
-1151.7172176915037 
-1151.7172176915037 
-1151.7172176915037 
-1151.7172176915037 
-1151.7172176915037 
-1151.7172176915037 
-1151.7172176915037 
-1151.7172176915037 
-1151.7172176915037 
-1151.7172176915037 
-1151.7172176915037 
-1151.7172176915037 
-1151.7172176915037 
-1151.7172176915037 
-1151.7172176915037 
-1151.7172176915037 
-1151.7172176915037 
-1151.7172176915037 
-1151.7172176915037 
-1151.7172176915037 
-1151.7172176915037 
-1151.7172176915037 
-1151.7172176915037 
-1151.7172176915037 
-1151.7172176915037 
-1151.7172176915037 
-1151.7172176915037 
-1151.7172176915037 
-1151.7172176915037 
-1151.7172176915037 
-1151.7172176915037 
-1151.7172176915037 
-1151.7172176915037 
-1151.7172176915037 
-1151.7172176915037 
-1151.7172176915037 
-1151.7172176915037 
-1151.7172176915037 
-1151.7172176915037 
-1151.7172176915037 
-1151.7172176915037 
