-1149.5187585861681 
-1149.5187585861681 
-1149.5187585861681 
-1149.5187585861681 
-1149.5187585861681 
-1149.5187585861681 
-1149.5187585861681 
-1149.5187585861681 
-1149.5187585861681 
-1149.5187585861681 
-1149.5187585861681 
-1149.5187585861681 
-1149.5187585861681 
-1149.5187585861681 
-1149.5187585861681 
-1149.5187585861681 
-1149.5187585861681 
-1149.5187585861681 
-1149.5187585861681 
-1149.5187585861681 
-1149.5187585861681 
-1149.5187585861681 
-1149.5187585861681 
-1149.5187585861681 
-1149.5187585861681 
-1149.5187585861681 
-1149.5187585861681 
-1149.5187585861681 
-1149.5187585861681 
-1149.5187585861681 
-1149.5187585861681 
-1149.5187585861681 
-1149.5187585861681 
-1149.5187585861681 
-1149.5187585861681 
-1149.5187585861681 
-1149.5187585861681 
-1149.5187585861681 
-1149.5187585861681 
-1149.5187585861681 
-1149.5187585861681 
-1149.5187585861681 
-1149.5187585861681 
-1149.5187585861681 
-1149.5187585861681 
-1149.5187585861681 
-1149.5187585861681 
-1149.5187585861681 
-1149.5187585861681 
-1149.5187585861681 
-1149.5187585861681 
-1149.5187585861681 
-1149.5187585861681 
-1149.5187585861681 
-1149.5187585861681 
-1149.5187585861681 
-1149.5187585861681 
-1149.5187585861681 
-1149.5187585861681 
-1149.5187585861681 
-1149.5187585861681 
-1149.5187585861681 
-1149.5187585861681 
-1149.5187585861681 
