-1049.5022797903453 
824.3987464258754 
-876.6106032052046 
577.6510483618501 
-603.2743774717595 
321.20899637685284 
-392.2712955222075 
164.624657904905 
-830.5531035254068 
623.7520464340647 
-707.769811234924 
446.6131021647741 
-508.4231416751922 
255.3215909641185 
-345.71183024759796 
128.5327349353837 
-685.6615936839245 
493.1799046662818 
-601.8679570322801 
369.31236629717654 
-457.0653606523088 
222.5979066374371 
-322.79589526827385 
108.14892125733833 
-705.69294028436 
515.1744984363595 
-626.8543181758703 
396.6110816233888 
-484.19422503414967 
246.07280673931243 
-339.46266482765685 
116.43686228980266 
-691.6664371101648 
503.7372003761205 
-619.7037337368804 
394.0078601936 
-484.9280090708124 
247.9324532103418 
-340.0440919502085 
113.97196665764724 
-567.9534245780169 
388.59436199346163 
-519.7205182048372 
312.6205791306939 
-422.2360902750488 
201.32772953593056 
-305.35456525145037 
86.73876945312027 
-485.99576458622647 
310.8856448927762 
-449.83232627416845 
252.8597933235149 
-373.3726083362632 
162.71581893412545 
-275.33668354388425 
63.17199769989439 
-494.4758983146536 
316.1582489727962 
-449.77738677215723 
247.0082946160798 
-362.83174341757956 
149.6216664621702 
-262.07914781336797 
51.66693924889428 
