-1152.3251173825274 
-1152.3251173825274 
-1152.3251173825274 
-1152.3251173825274 
-1152.3251173825274 
-1152.3251173825274 
-1152.3251173825274 
-1152.3251173825274 
-1152.3251173825274 
-1152.3251173825274 
-1152.3251173825274 
-1152.3251173825274 
-1152.3251173825274 
-1152.3251173825274 
-1152.3251173825274 
-1152.3251173825274 
-1152.3251173825274 
-1152.3251173825274 
-1152.3251173825274 
-1152.3251173825274 
-1152.3251173825274 
-1152.3251173825274 
-1152.3251173825274 
-1152.3251173825274 
-1152.3251173825274 
-1152.3251173825274 
-1152.3251173825274 
-1152.3251173825274 
-1152.3251173825274 
-1152.3251173825274 
-1152.3251173825274 
-1152.3251173825274 
-1152.3251173825274 
-1152.3251173825274 
-1152.3251173825274 
-1152.3251173825274 
-1152.3251173825274 
-1152.3251173825274 
-1152.3251173825274 
-1152.3251173825274 
-1152.3251173825274 
-1152.3251173825274 
-1152.3251173825274 
-1152.3251173825274 
-1152.3251173825274 
-1152.3251173825274 
-1152.3251173825274 
-1152.3251173825274 
-1152.3251173825274 
-1152.3251173825274 
-1152.3251173825274 
-1152.3251173825274 
-1152.3251173825274 
-1152.3251173825274 
-1152.3251173825274 
-1152.3251173825274 
-1152.3251173825274 
-1152.3251173825274 
-1152.3251173825274 
-1152.3251173825274 
-1152.3251173825274 
-1152.3251173825274 
-1152.3251173825274 
-1152.3251173825274 
