-1049.3234366442043 
824.1663229828639 
-876.4640919396304 
577.6515263371136 
-603.6736140169862 
322.01189817547606 
-393.4790840709282 
165.89648758117903 
-830.2949961967323 
623.4318190470884 
-707.4885078261409 
446.3540983557777 
-508.3499039124663 
255.39128270079857 
-345.9602166836911 
128.74335200293132 
-685.5526420562599 
493.0459736583904 
-601.8035353074923 
369.23490967250046 
-457.0355625290629 
222.48690953268397 
-322.62294975821993 
107.77489763666664 
-706.2169884575225 
515.7256740734731 
-627.55130001058 
397.35294108304237 
-484.986208612528 
246.7137139425871 
-339.9137256437092 
116.53815770447505 
-693.2745951501421 
505.3288808568081 
-621.362128214693 
395.6114546994249 
-486.47732982194486 
249.23536859216836 
-341.07728500049177 
114.58946345856425 
-570.7649052260404 
391.23350574739135 
-522.1561371861084 
314.6846445844461 
-423.958538420701 
202.60665281091863 
-306.2848015147133 
87.28071791249603 
-489.6159492091091 
314.1984201560743 
-452.71328071786667 
255.11711513827638 
-375.0821539959155 
163.8687712920825 
-276.1320061516401 
63.65121805687823 
-498.2063240629129 
319.5755869814062 
-452.76301479912456 
249.39075943971073 
-364.7147802114438 
151.01508891546337 
-263.17839153198923 
52.48420674379628 
