-1048.9113858745986 
823.7743261058997 
-875.7281241615498 
576.8713446543916 
-602.6425879791077 
321.1398960034998 
-392.5791027603301 
165.3135986738115 
-830.2020028152424 
623.4767851520215 
-707.3868583986634 
446.41889023967985 
-508.31736626415073 
255.5651805170339 
-346.0344615143739 
128.96550770579836 
-685.4182052168355 
493.1477591094093 
-601.920394999145 
369.68751537320315 
-457.5131818166231 
223.213502491233 
-323.2109532801505 
108.41500443237501 
-705.5309673567912 
515.289424250987 
-627.1495238823882 
397.30411635668014 
-484.9757876931052 
246.96886775503074 
-340.06339972768035 
116.8027478127074 
-692.2771834176699 
504.5652776105243 
-620.6061032775804 
395.1794511463542 
-486.0639128050597 
249.0878311687478 
-340.8523597856465 
114.53684441297179 
-570.1680847754643 
390.85297437141617 
-521.7544013709244 
314.5750692914087 
-423.8386300342728 
202.72830261619163 
-306.3059594041513 
87.44511507807945 
-489.5570873030069 
314.30801184051995 
-452.72069737773336 
255.32702043183053 
-375.2079436846376 
164.19304780954712 
-276.3431436695379 
64.00910067201737 
-498.1840725185951 
319.6653025509593 
-452.6565005864455 
249.3870400521841 
-364.55543351065364 
151.0344888636421 
-263.1222854345546 
52.65691787474172 
