-1048.9475092240277 
823.8090652757106 
-875.7928942774635 
576.9403327822115 
-602.7332551487742 
321.2166329604907 
-392.6575246041497 
165.36370552483635 
-830.2081508674328 
623.4716656998363 
-707.3952894755781 
446.4140451410782 
-508.32162718720866 
255.5520077973947 
-346.0296840830497 
128.94758192557902 
-685.4241249706957 
493.1344957111137 
-601.9076796652222 
369.6479644191104 
-457.47305751392526 
223.152836703614 
-323.16232787446745 
108.36168672445564 
-705.5818531514199 
515.3202012051025 
-627.1795347757993 
397.3061396591686 
-484.9762902086551 
246.94746412308243 
-340.05117264787964 
116.78042750674487 
-692.3566588481331 
504.62514354017446 
-620.6660561486722 
395.21232551774835 
-486.0957709202621 
249.09730170471428 
-340.8689913058208 
114.53952389345997 
-570.2197135102998 
390.8845753658722 
-521.7853914163907 
314.57836899466827 
-423.84095115590134 
202.70950330947412 
-306.2972450221182 
87.42719333009828 
-489.56987635687346 
314.3029716287148 
-452.71882534886447 
255.30178660046434 
-375.1855827410475 
164.15237842427206 
-276.3144675096714 
63.97297685597147 
-498.19649850576616 
319.66392628674384 
-452.6649845844769 
249.3792260183264 
-364.5554931597768 
151.01747499825314 
-263.11432362983044 
52.635318361430144 
