-1045.485421304114 
820.3932828485213 
-868.6309212087066 
569.9161444803515 
-594.0150860959252 
315.4266710466392 
-387.45075455584436 
164.10898931272612 
-829.826542128481 
624.767176693997 
-707.1748874132512 
447.89856048812686 
-508.26510751711265 
257.10653730375185 
-345.8365914321352 
130.06876553329496 
-684.7461912329284 
495.0356054163205 
-603.6393245905474 
374.2469764323212 
-461.0428149188886 
228.06161301564362 
-325.4472918914526 
110.8335050802996 
-700.9871635646984 
512.7750109894577 
-623.8497869986085 
396.63931380981603 
-483.7138198009023 
248.03607985603026 
-339.88403809452507 
118.23611874308997 
-686.8448881765833 
500.7298971830573 
-615.3152756689615 
391.9230160426735 
-481.9574867098126 
247.5324777954915 
-338.6922814531351 
114.87014003307203 
-568.0441918102158 
390.53390625911123 
-520.1192509331981 
314.7707620756443 
-422.58123916061464 
203.15963624459212 
-305.21726435220944 
88.0596700222909 
-489.31254357586147 
315.7833963281852 
-452.74787620689995 
257.0224610468125 
-375.2423913228404 
165.65906713314058 
-276.0042807857367 
65.07904280015626 
-496.55950166900107 
319.33500234622034 
-450.3307669850892 
248.42620930502648 
-362.0713384939007 
150.53774233061716 
-261.6243588632757 
53.39641852400593 
