-1152.5728109811362 
-1152.5728109811362 
-1152.5728109811362 
-1152.5728109811362 
-1152.5728109811362 
-1152.5728109811362 
-1152.5728109811362 
-1152.5728109811362 
-1152.5728109811362 
-1152.5728109811362 
-1152.5728109811362 
-1152.5728109811362 
-1152.5728109811362 
-1152.5728109811362 
-1152.5728109811362 
-1152.5728109811362 
-1152.5728109811362 
-1152.5728109811362 
-1152.5728109811362 
-1152.5728109811362 
-1152.5728109811362 
-1152.5728109811362 
-1152.5728109811362 
-1152.5728109811362 
-1152.5728109811362 
-1152.5728109811362 
-1152.5728109811362 
-1152.5728109811362 
-1152.5728109811362 
-1152.5728109811362 
-1152.5728109811362 
-1152.5728109811362 
-1152.5728109811362 
-1152.5728109811362 
-1152.5728109811362 
-1152.5728109811362 
-1152.5728109811362 
-1152.5728109811362 
-1152.5728109811362 
-1152.5728109811362 
-1152.5728109811362 
-1152.5728109811362 
-1152.5728109811362 
-1152.5728109811362 
-1152.5728109811362 
-1152.5728109811362 
-1152.5728109811362 
-1152.5728109811362 
-1152.5728109811362 
-1152.5728109811362 
-1152.5728109811362 
-1152.5728109811362 
-1152.5728109811362 
-1152.5728109811362 
-1152.5728109811362 
-1152.5728109811362 
-1152.5728109811362 
-1152.5728109811362 
-1152.5728109811362 
-1152.5728109811362 
-1152.5728109811362 
-1152.5728109811362 
-1152.5728109811362 
-1152.5728109811362 
