-1046.2555522585494 
821.2815429827752 
-870.148911969615 
570.9527549346535 
-594.6202695856373 
314.8299470527247 
-386.4760450133938 
162.68275943422316 
-830.1834097216696 
624.8271160923475 
-707.5241266417802 
447.92240253872524 
-508.4770628084578 
256.85374033189294 
-345.7249887122356 
129.6428455992686 
-685.101503537028 
494.86395217895875 
-603.4897369396515 
373.6833582139482 
-460.8368917188097 
227.7352160603932 
-325.6153643085217 
110.8970498491384 
-701.3166208838072 
512.712121810018 
-623.8585997132158 
396.05246028711844 
-483.16708595799844 
247.1256751830276 
-339.425072045693 
117.81428070949401 
-685.9933038016438 
499.6273406655099 
-614.5091648040124 
390.73706066481077 
-480.94737981012264 
246.20619977618995 
-337.8214836275111 
114.04491486336318 
-565.3920033287121 
387.67172003178825 
-517.7728415695794 
312.5061517191623 
-421.06496517272785 
201.7913035994959 
-304.5185702512683 
87.36897200223633 
-485.7999909012812 
312.18168221232 
-449.8424325866758 
254.38476067196592 
-373.5240532855786 
164.22115468524666 
-275.2938038330594 
64.34755038521027 
-493.2689741739328 
316.07149782901956 
-447.8425483598618 
246.1149034880313 
-360.43311462101616 
148.90301287556503 
-260.52969272334707 
52.232631234547014 
