-1045.4777179122277 
820.4026695316682 
-868.641914162645 
569.8710229051239 
-593.9639323514621 
315.3924650873231 
-387.44706032144086 
164.08822878446517 
-829.8151671223125 
624.742864763072 
-707.1669610048814 
447.89211571950386 
-508.2723448303324 
257.09792254090536 
-345.836774700835 
130.06336685168193 
-684.7502574012285 
495.01724843822205 
-603.6354561457392 
374.25431846353354 
-461.0706760939044 
228.069804458477 
-325.4577718069162 
110.83592997262089 
-700.9961974141416 
512.7788343088865 
-623.8584925690565 
396.6246251564603 
-483.70826320590743 
248.03090450647804 
-339.8941465765731 
118.23090299654615 
-686.8235158626316 
500.7070412795881 
-615.3048036443047 
391.8942688200267 
-481.935286176665 
247.50658583300714 
-338.6852208679032 
114.85650028141923 
-568.0078760053079 
390.4824274057283 
-520.0858121691043 
314.74435108446824 
-422.57163960577066 
203.13396738239004 
-305.20232089479316 
88.04508703125705 
-489.3030324152238 
315.75764927898945 
-452.72811114673993 
256.99456754645684 
-375.23085738800984 
165.6411630464247 
-275.9978287543 
65.06389386810417 
-496.56082037984754 
319.33004680493417 
-450.32878156145466 
248.39769505564738 
-362.0481922885596 
150.51325860122495 
-261.61718629105974 
53.377931761658765 
