-1154.4347869002981 
-1154.4347869002981 
-1154.4347869002981 
-1154.4347869002981 
-1154.4347869002981 
-1154.4347869002981 
-1154.4347869002981 
-1154.4347869002981 
-1154.4347869002981 
-1154.4347869002981 
-1154.4347869002981 
-1154.4347869002981 
-1154.4347869002981 
-1154.4347869002981 
-1154.4347869002981 
-1154.4347869002981 
-1154.4347869002981 
-1154.4347869002981 
-1154.4347869002981 
-1154.4347869002981 
-1154.4347869002981 
-1154.4347869002981 
-1154.4347869002981 
-1154.4347869002981 
-1154.4347869002981 
-1154.4347869002981 
-1154.4347869002981 
-1154.4347869002981 
-1154.4347869002981 
-1154.4347869002981 
-1154.4347869002981 
-1154.4347869002981 
-1154.4347869002981 
-1154.4347869002981 
-1154.4347869002981 
-1154.4347869002981 
-1154.4347869002981 
-1154.4347869002981 
-1154.4347869002981 
-1154.4347869002981 
-1154.4347869002981 
-1154.4347869002981 
-1154.4347869002981 
-1154.4347869002981 
-1154.4347869002981 
-1154.4347869002981 
-1154.4347869002981 
-1154.4347869002981 
-1154.4347869002981 
-1154.4347869002981 
-1154.4347869002981 
-1154.4347869002981 
-1154.4347869002981 
-1154.4347869002981 
-1154.4347869002981 
-1154.4347869002981 
-1154.4347869002981 
-1154.4347869002981 
-1154.4347869002981 
-1154.4347869002981 
-1154.4347869002981 
-1154.4347869002981 
-1154.4347869002981 
-1154.4347869002981 
