-1155.182486957554 
-1155.1824869575541 
-1155.1824869575541 
-1155.1824869575541 
-1155.1824869575541 
-1155.1824869575541 
-1155.1824869575541 
-1155.1824869575541 
-1155.1824869575541 
-1155.1824869575541 
-1155.1824869575541 
-1155.1824869575541 
-1155.1824869575541 
-1155.1824869575541 
-1155.1824869575541 
-1155.1824869575541 
-1155.1824869575541 
-1155.1824869575541 
-1155.1824869575541 
-1155.1824869575541 
-1155.1824869575541 
-1155.1824869575541 
-1155.1824869575541 
-1155.1824869575541 
-1155.1824869575541 
-1155.1824869575541 
-1155.1824869575541 
-1155.1824869575541 
-1155.1824869575541 
-1155.1824869575541 
-1155.1824869575541 
-1155.1824869575541 
-1155.1824869575541 
-1155.1824869575541 
-1155.1824869575541 
-1155.1824869575541 
-1155.1824869575541 
-1155.1824869575541 
-1155.1824869575541 
-1155.1824869575541 
-1155.1824869575541 
-1155.1824869575541 
-1155.1824869575541 
-1155.1824869575541 
-1155.1824869575541 
-1155.1824869575541 
-1155.1824869575541 
-1155.1824869575541 
-1155.1824869575541 
-1155.1824869575541 
-1155.1824869575541 
-1155.1824869575541 
-1155.1824869575541 
-1155.1824869575541 
-1155.1824869575541 
-1155.1824869575541 
-1155.1824869575541 
-1155.1824869575541 
-1155.1824869575541 
-1155.1824869575541 
-1155.1824869575541 
-1155.1824869575541 
-1155.1824869575541 
-1155.1824869575541 
