-1045.4737217629258 
820.3893721948476 
-868.6231850591982 
569.8866661053423 
-593.9889098365118 
315.41175297494647 
-387.44148377898534 
164.09141541070807 
-829.8189071919319 
624.7550223300879 
-707.1683636071323 
447.8934480605559 
-508.26302343871305 
257.0991675046326 
-345.8338014220537 
130.06609793122647 
-684.7483471431017 
495.0297527909179 
-603.6393627892471 
374.2526011743988 
-461.0526814293322 
228.06332894352468 
-325.45131911083183 
110.83685583382378 
-700.9894643569462 
512.7770143336918 
-623.8526397737847 
396.6345038812341 
-483.713627733098 
248.03725814373053 
-339.8872712844029 
118.23248247894857 
-686.8310798238078 
500.71800709955136 
-615.3088283598802 
391.91225666488185 
-481.95059396531815 
247.52574023196507 
-338.68973105749603 
114.86349849513431 
-568.0218960753067 
390.5089328667306 
-520.1051634403104 
314.7643977680963 
-422.58081846351547 
203.15343207527832 
-305.214758259072 
88.05651621942609 
-489.3017698095946 
315.77035536612345 
-452.7411301489483 
257.01821905449367 
-375.24594756778015 
165.66049554340748 
-276.0063253610513 
65.07481318804415 
-496.5589924499227 
319.33548367178656 
-450.3339309906187 
248.42245845553413 
-362.0710531411439 
150.53689784460744 
-261.62394067757685 
53.387418483232075 
