-1152.5278934820442 
-1152.5278934820442 
-1152.5278934820442 
-1152.5278934820442 
-1152.5278934820442 
-1152.5278934820442 
-1152.5278934820442 
-1152.5278934820442 
-1152.5278934820442 
-1152.5278934820442 
-1152.5278934820442 
-1152.5278934820442 
-1152.5278934820442 
-1152.5278934820442 
-1152.5278934820442 
-1152.5278934820442 
-1152.5278934820442 
-1152.5278934820442 
-1152.5278934820442 
-1152.5278934820442 
-1152.5278934820442 
-1152.5278934820442 
-1152.5278934820442 
-1152.5278934820442 
-1152.5278934820442 
-1152.5278934820442 
-1152.5278934820442 
-1152.5278934820442 
-1152.5278934820442 
-1152.5278934820442 
-1152.5278934820442 
-1152.5278934820442 
-1152.5278934820442 
-1152.5278934820442 
-1152.5278934820442 
-1152.5278934820442 
-1152.5278934820442 
-1152.5278934820442 
-1152.5278934820442 
-1152.5278934820442 
-1152.5278934820442 
-1152.5278934820442 
-1152.5278934820442 
-1152.5278934820442 
-1152.5278934820442 
-1152.5278934820442 
-1152.5278934820442 
-1152.5278934820442 
-1152.5278934820442 
-1152.5278934820442 
-1152.5278934820442 
-1152.5278934820442 
-1152.5278934820442 
-1152.5278934820442 
-1152.5278934820442 
-1152.5278934820442 
-1152.5278934820442 
-1152.5278934820442 
-1152.5278934820442 
-1152.5278934820442 
-1152.5278934820442 
-1152.5278934820442 
-1152.5278934820442 
-1152.5278934820442 
