-1152.7045397450247 
-1152.7045397450247 
-1152.7045397450247 
-1152.7045397450247 
-1152.7045397450247 
-1152.7045397450247 
-1152.7045397450247 
-1152.7045397450247 
-1152.7045397450247 
-1152.7045397450247 
-1152.7045397450247 
-1152.7045397450247 
-1152.7045397450247 
-1152.7045397450247 
-1152.7045397450247 
-1152.7045397450247 
-1152.7045397450247 
-1152.7045397450247 
-1152.7045397450247 
-1152.7045397450247 
-1152.7045397450247 
-1152.7045397450247 
-1152.7045397450247 
-1152.7045397450247 
-1152.7045397450247 
-1152.7045397450247 
-1152.7045397450247 
-1152.7045397450247 
-1152.7045397450247 
-1152.7045397450247 
-1152.7045397450247 
-1152.7045397450247 
-1152.7045397450247 
-1152.7045397450247 
-1152.7045397450247 
-1152.7045397450247 
-1152.7045397450247 
-1152.7045397450247 
-1152.7045397450247 
-1152.7045397450247 
-1152.7045397450247 
-1152.7045397450247 
-1152.7045397450247 
-1152.7045397450247 
-1152.7045397450247 
-1152.7045397450247 
-1152.7045397450247 
-1152.7045397450247 
-1152.7045397450247 
-1152.7045397450247 
-1152.7045397450247 
-1152.7045397450247 
-1152.7045397450247 
-1152.7045397450247 
-1152.7045397450247 
-1152.7045397450247 
-1152.7045397450247 
-1152.7045397450247 
-1152.7045397450247 
-1152.7045397450247 
-1152.7045397450247 
-1152.7045397450247 
-1152.7045397450247 
-1152.7045397450247 
