-1154.4179861725006 
-1154.4179861725006 
-1154.4179861725006 
-1154.4179861725006 
-1154.4179861725006 
-1154.4179861725006 
-1154.4179861725006 
-1154.4179861725006 
-1154.4179861725006 
-1154.4179861725006 
-1154.4179861725006 
-1154.4179861725006 
-1154.4179861725006 
-1154.4179861725006 
-1154.4179861725006 
-1154.4179861725006 
-1154.4179861725006 
-1154.4179861725006 
-1154.4179861725006 
-1154.4179861725006 
-1154.4179861725006 
-1154.4179861725006 
-1154.4179861725006 
-1154.4179861725006 
-1154.4179861725006 
-1154.4179861725006 
-1154.4179861725006 
-1154.4179861725006 
-1154.4179861725006 
-1154.4179861725006 
-1154.4179861725006 
-1154.4179861725006 
-1154.4179861725006 
-1154.4179861725006 
-1154.4179861725006 
-1154.4179861725006 
-1154.4179861725006 
-1154.4179861725006 
-1154.4179861725006 
-1154.4179861725006 
-1154.4179861725006 
-1154.4179861725006 
-1154.4179861725006 
-1154.4179861725006 
-1154.4179861725006 
-1154.4179861725006 
-1154.4179861725006 
-1154.4179861725006 
-1154.4179861725006 
-1154.4179861725006 
-1154.4179861725006 
-1154.4179861725006 
-1154.4179861725006 
-1154.4179861725006 
-1154.4179861725006 
-1154.4179861725006 
-1154.4179861725006 
-1154.4179861725006 
-1154.4179861725006 
-1154.4179861725006 
-1154.4179861725006 
-1154.4179861725006 
-1154.4179861725006 
-1154.4179861725006 
