-1046.9053010591963 
821.8984276424717 
-871.965308462797 
572.9197945881972 
-597.3634292492474 
316.8581779970573 
-388.3077724755958 
163.080687118992 
-829.7100467841076 
623.8415651048745 
-707.0423353144231 
447.06252852298235 
-508.3519497587416 
256.5653160393207 
-346.22657211326043 
129.7917708409106 
-684.5913125585525 
493.67937503718866 
-602.5553328870164 
372.1337232435032 
-459.8981529475888 
226.6730595981291 
-325.5349887058656 
110.74573249647798 
-702.1883791189716 
513.1987093682956 
-624.9904778584 
396.80366350089645 
-484.39161487461024 
247.66949033949945 
-340.12441801247974 
117.62653313689148 
-687.9768708750839 
501.29999995933474 
-616.92026382326 
392.79872135655353 
-483.38686528569133 
247.72873812185105 
-339.1667414313202 
114.15942699141777 
-567.9129953564634 
389.5614994944565 
-519.9160913403307 
313.8811906839986 
-422.66485426031613 
202.66384391896707 
-305.66746475707066 
87.81165941047479 
-489.1675780116722 
314.71648036474744 
-452.30203389720134 
255.74140096284685 
-374.88142536751957 
164.8077231733614 
-276.29436189557174 
64.89505717539642 
-497.29992546843505 
319.36958602082666 
-451.19524039084394 
248.42489221805738 
-362.6609295917722 
150.1245982965213 
-261.8427691649679 
52.793697980658955 
