-1152.0912393867852 
-1152.0912393867852 
-1152.0912393867852 
-1152.0912393867852 
-1152.0912393867852 
-1152.0912393867852 
-1152.0912393867852 
-1152.0912393867852 
-1152.0912393867852 
-1152.0912393867852 
-1152.0912393867852 
-1152.0912393867852 
-1152.0912393867852 
-1152.0912393867852 
-1152.0912393867852 
-1152.0912393867852 
-1152.0912393867852 
-1152.0912393867852 
-1152.0912393867852 
-1152.0912393867852 
-1152.0912393867852 
-1152.0912393867852 
-1152.0912393867852 
-1152.0912393867852 
-1152.0912393867852 
-1152.0912393867852 
-1152.0912393867852 
-1152.0912393867852 
-1152.0912393867852 
-1152.0912393867852 
-1152.0912393867852 
-1152.0912393867852 
-1152.0912393867852 
-1152.0912393867852 
-1152.0912393867852 
-1152.0912393867852 
-1152.0912393867852 
-1152.0912393867852 
-1152.0912393867852 
-1152.0912393867852 
-1152.0912393867852 
-1152.0912393867852 
-1152.0912393867852 
-1152.0912393867852 
-1152.0912393867852 
-1152.0912393867852 
-1152.0912393867852 
-1152.0912393867852 
-1152.0912393867852 
-1152.0912393867852 
-1152.0912393867852 
-1152.0912393867852 
-1152.0912393867852 
-1152.0912393867852 
-1152.0912393867852 
-1152.0912393867852 
-1152.0912393867852 
-1152.0912393867852 
-1152.0912393867852 
-1152.0912393867852 
-1152.0912393867852 
-1152.0912393867852 
-1152.0912393867852 
-1152.0912393867852 
