-1154.292557697767 
-1154.292557697767 
-1154.292557697767 
-1154.292557697767 
-1154.292557697767 
-1154.292557697767 
-1154.292557697767 
-1154.292557697767 
-1154.292557697767 
-1154.292557697767 
-1154.292557697767 
-1154.292557697767 
-1154.292557697767 
-1154.292557697767 
-1154.292557697767 
-1154.292557697767 
-1154.292557697767 
-1154.292557697767 
-1154.292557697767 
-1154.292557697767 
-1154.292557697767 
-1154.292557697767 
-1154.292557697767 
-1154.292557697767 
-1154.292557697767 
-1154.292557697767 
-1154.292557697767 
-1154.292557697767 
-1154.292557697767 
-1154.292557697767 
-1154.292557697767 
-1154.292557697767 
-1154.292557697767 
-1154.292557697767 
-1154.292557697767 
-1154.292557697767 
-1154.292557697767 
-1154.292557697767 
-1154.292557697767 
-1154.292557697767 
-1154.292557697767 
-1154.292557697767 
-1154.292557697767 
-1154.292557697767 
-1154.292557697767 
-1154.292557697767 
-1154.292557697767 
-1154.292557697767 
-1154.292557697767 
-1154.292557697767 
-1154.292557697767 
-1154.292557697767 
-1154.292557697767 
-1154.292557697767 
-1154.292557697767 
-1154.292557697767 
-1154.292557697767 
-1154.292557697767 
-1154.292557697767 
-1154.292557697767 
-1154.292557697767 
-1154.292557697767 
-1154.292557697767 
-1154.292557697767 
