-1049.4647618968718 
824.3636896868024 
-876.5448163088781 
577.5818555546082 
-603.1822298760821 
321.1309535598108 
-392.1898781263519 
164.57176024378745 
-830.5430337576107 
623.755113746619 
-707.7601017620406 
446.6192741751722 
-508.4205820211194 
255.33778440808166 
-345.7184127271545 
128.55253179535427 
-685.6458687502677 
493.18617771780833 
-601.8761002071946 
369.351866269265 
-457.107533984512 
222.6631445169025 
-322.84845045147216 
108.20629564211013 
-705.6258373135187 
515.1305145338671 
-626.8137986090387 
396.603374518904 
-484.19048340822616 
246.0939494987539 
-339.47465008258666 
116.4599963544282 
-691.5697298598874 
503.6620206382188 
-619.6293472766165 
393.9634393553972 
-484.8856644195576 
247.91517619928754 
-340.02067580421556 
113.96567403326057 
-567.8910229087472 
388.5517338296252 
-519.675809971225 
312.602677381068 
-422.2174735508742 
201.33202156616602 
-305.35096489911706 
86.75030357847281 
-485.9809962989582 
310.88609282358016 
-449.82296475330423 
252.86866280951327 
-373.37370492756486 
162.7357469068436 
-275.3476734145461 
63.19882644767273 
-494.4653409717995 
316.15764816509613 
-449.75817307159537 
246.99789367709803 
-362.8066754236052 
149.6132945073589 
-262.0650677593158 
51.67618888545069 
