-1046.2683612870417 
821.2254112445464 
-869.9476903091875 
571.125020599019 
-595.1194117645356 
315.7200472966178 
-387.2434594068409 
163.2651171704681 
-830.3600135989268 
625.1422775225668 
-707.7350818428473 
448.1389288579404 
-508.4152033965021 
256.7025779862719 
-345.331956058479 
129.3158187178437 
-685.3110989503625 
495.2230648047716 
-603.6885275710194 
373.7205134636883 
-460.37894336426825 
227.04123029916715 
-324.6845859364345 
110.18184332810743 
-701.6980312023102 
513.0264682445188 
-623.8354346780302 
395.92851201079674 
-482.8004572685817 
246.7856653419943 
-338.97887267512687 
117.5394303066762 
-686.7812431209031 
500.2769394783394 
-614.7160308155371 
390.7630474746843 
-480.7137190121724 
246.02880218840593 
-337.56229179990873 
113.93850453793169 
-566.0708217090976 
388.36040223969087 
-518.129059115517 
312.6116703376248 
-420.7025598462455 
201.28046014223798 
-303.8317671217027 
86.875058758611 
-485.76389796523176 
312.2440536621929 
-449.74800997049687 
254.25049777568165 
-373.08026957403536 
163.6869472085964 
-274.561194057043 
63.75364575365922 
-492.9908506939424 
315.8405986785325 
-447.4711133356186 
245.86682106086187 
-360.12688700656395 
148.71110058833492 
-260.20083800704543 
51.95389930241403 
