-1046.6394819574296 
821.6851689518461 
-871.0053635459819 
571.8069256841717 
-595.6135092174167 
315.3826986272363 
-386.8390965309292 
162.5559628977058 
-830.416152837071 
624.8833346233398 
-707.7446175236016 
447.90528342296005 
-508.52928473737165 
256.58919982806725 
-345.52490190971434 
129.22426687206507 
-685.5464370720235 
494.9771725485412 
-603.5268058496849 
373.2617697964945 
-460.37245959060266 
226.98558654239397 
-325.07452161474623 
110.31891493588942 
-702.3003645586521 
513.3488463777585 
-624.378790908509 
396.0427936176947 
-483.0197449287757 
246.5940178496533 
-339.02170001163677 
117.3257341004919 
-687.105576417669 
500.4149759515723 
-615.2121211815682 
390.93184934841736 
-480.9997140293464 
245.83771213190403 
-337.5207062918217 
113.59145702633592 
-565.9618840665024 
387.93932718389124 
-518.0068773680713 
312.31307928250294 
-420.8284702736115 
201.2271225252034 
-304.0836445178863 
86.79815442263617 
-485.8527099859291 
311.9980744954345 
-449.73801990923863 
253.98201810397467 
-373.18945010276855 
163.62783972552842 
-274.8471060434272 
63.740254377008256 
-493.3733031687875 
315.99176731261355 
-447.91906159491873 
245.95629963748092 
-360.36195219551485 
148.54022209939762 
-260.2436843973453 
51.70823760701103 
