-1049.2487921624079 
824.0959096394156 
-876.3270647246983 
577.5072764558763 
-603.4822130159469 
321.8538543682814 
-393.31728176042236 
165.79733922182052 
-830.268096942332 
623.4329478687695 
-707.462778252595 
446.36354272411444 
-508.34320524475373 
255.42794850260452 
-345.9797872133938 
128.79345094532582 
-685.4994815493224 
493.0420169396637 
-601.8076460068291 
369.31099593844397 
-457.1225767304311 
222.62762629041586 
-322.7397990744007 
107.90364206826217 
-706.044407750473 
515.6070964807599 
-627.4483141069804 
397.32960091611994 
-484.9801884923174 
246.7670562544153 
-339.95041835238163 
116.5983413014186 
-693.0386210000854 
505.1439359652887 
-621.1878358674581 
395.5116735338894 
-486.39172144914824 
249.2100729327738 
-341.04178906657046 
114.58954460433185 
-570.6119365347249 
391.1257423737469 
-522.0493895237821 
314.64190595931996 
-423.9212218203705 
202.62399130143234 
-306.28897047783374 
87.31821802226143 
-489.57648223151966 
314.19169687692954 
-452.6865947732974 
255.13146828065163 
-375.08358930750535 
163.91530303717155 
-276.16481776842113 
63.72230640902251 
-498.1811206833372 
319.57018513832446 
-452.71614889994316 
249.3622002127941 
-364.65704576663614 
150.99802028371067 
-263.1562486305417 
52.51908278932882 
