-1152.5203595918047 
-1152.5203595918047 
-1152.5203595918047 
-1152.5203595918047 
-1152.5203595918047 
-1152.5203595918047 
-1152.5203595918047 
-1152.5203595918047 
-1152.5203595918047 
-1152.5203595918047 
-1152.5203595918047 
-1152.5203595918047 
-1152.5203595918047 
-1152.5203595918047 
-1152.5203595918047 
-1152.5203595918047 
-1152.5203595918047 
-1152.5203595918047 
-1152.5203595918047 
-1152.5203595918047 
-1152.5203595918047 
-1152.5203595918047 
-1152.5203595918047 
-1152.5203595918047 
-1152.5203595918047 
-1152.5203595918047 
-1152.5203595918047 
-1152.5203595918047 
-1152.5203595918047 
-1152.5203595918047 
-1152.5203595918047 
-1152.5203595918047 
-1152.5203595918047 
-1152.5203595918047 
-1152.5203595918047 
-1152.5203595918047 
-1152.5203595918047 
-1152.5203595918047 
-1152.5203595918047 
-1152.5203595918047 
-1152.5203595918047 
-1152.5203595918047 
-1152.5203595918047 
-1152.5203595918047 
-1152.5203595918047 
-1152.5203595918047 
-1152.5203595918047 
-1152.5203595918047 
-1152.5203595918047 
-1152.5203595918047 
-1152.5203595918047 
-1152.5203595918047 
-1152.5203595918047 
-1152.5203595918047 
-1152.5203595918047 
-1152.5203595918047 
-1152.5203595918047 
-1152.5203595918047 
-1152.5203595918047 
-1152.5203595918047 
-1152.5203595918047 
-1152.5203595918047 
-1152.5203595918047 
-1152.5203595918047 
