-1052.7301722347315 
827.4526674461558 
-881.9088544887904 
583.2151298851356 
-610.5145630196804 
327.3938199859067 
-398.61080626288447 
168.7634495558643 
-830.810525754462 
623.2667077443439 
-708.5670906737361 
446.63396293942077 
-509.3401697308942 
254.9146097659606 
-345.7823908075846 
127.226124170568 
-685.468142096377 
491.7423074766378 
-600.8811605619652 
366.6653890862331 
-454.6590666699415 
218.61936601791493 
-319.4774208845621 
103.9490130853816 
-709.3195211752626 
517.4152709334613 
-629.3253754425381 
397.2010517247297 
-484.8518431042384 
245.02736502029236 
-338.92965632990905 
114.77309576959951 
-698.1273259595581 
508.778697401837 
-624.9208017843462 
397.28477467524885 
-488.2155214034222 
249.44742494992065 
-341.9571754099116 
114.55880349837996 
-572.3617000847693 
391.5717913642036 
-522.8527885433132 
313.7982635971951 
-423.4444625582291 
200.84821191802627 
-305.4451460734179 
85.77278566201035 
-486.9992368241144 
310.65797485422667 
-450.10350816490285 
251.5703997365461 
-372.46158163272565 
160.3590947232881 
-273.6858658682955 
60.54811370458252 
-495.18423745065877 
315.95867778733145 
-450.61898841776895 
246.8726329072515 
-363.50686956658507 
148.9948363186897 
-261.9748074537341 
50.14601388876106 
