-1155.0686243267012 
-1155.0686243267012 
-1155.0686243267012 
-1155.0686243267012 
-1155.0686243267012 
-1155.0686243267012 
-1155.0686243267012 
-1155.0686243267012 
-1155.0686243267012 
-1155.0686243267012 
-1155.0686243267012 
-1155.0686243267012 
-1155.0686243267012 
-1155.0686243267012 
-1155.0686243267012 
-1155.0686243267012 
-1155.0686243267012 
-1155.0686243267012 
-1155.0686243267012 
-1155.0686243267012 
-1155.0686243267012 
-1155.0686243267012 
-1155.0686243267012 
-1155.0686243267012 
-1155.0686243267012 
-1155.0686243267012 
-1155.0686243267012 
-1155.0686243267012 
-1155.0686243267012 
-1155.0686243267012 
-1155.0686243267012 
-1155.0686243267012 
-1155.0686243267012 
-1155.0686243267012 
-1155.0686243267012 
-1155.0686243267012 
-1155.0686243267012 
-1155.0686243267012 
-1155.0686243267012 
-1155.0686243267012 
-1155.0686243267012 
-1155.0686243267012 
-1155.0686243267012 
-1155.0686243267012 
-1155.0686243267012 
-1155.0686243267012 
-1155.0686243267012 
-1155.0686243267012 
-1155.0686243267012 
-1155.0686243267012 
-1155.0686243267012 
-1155.0686243267012 
-1155.0686243267012 
-1155.0686243267012 
-1155.0686243267012 
-1155.0686243267012 
-1155.0686243267012 
-1155.0686243267012 
-1155.0686243267012 
-1155.0686243267012 
-1155.0686243267012 
-1155.0686243267012 
-1155.0686243267012 
-1155.0686243267012 
