-1045.483462939342 
820.392685994986 
-868.6289501974011 
569.9113457421414 
-594.0113565647662 
315.42486476571224 
-387.4488365663304 
164.10663050104847 
-829.825328308124 
624.7656964760545 
-707.1742251852444 
447.89855880459925 
-508.26522741004635 
257.10628721855113 
-345.83687263071363 
130.06909942342537 
-684.7462325318161 
495.03496946147425 
-603.6397811813206 
374.24882524378205 
-461.0448600474658 
228.06283272253603 
-325.4487606682857 
110.83477558785236 
-700.9866744298045 
512.7748612666318 
-623.8495033845903 
396.638432527797 
-483.7137664278205 
248.0365848380639 
-339.8843738865281 
118.23591616311123 
-686.8419613894905 
500.7273890022197 
-615.3129889099407 
391.92027457378595 
-481.9552400093101 
247.53080305538904 
-338.69119979710604 
114.86925386862792 
-568.0409414825006 
390.5301361293631 
-520.1162929014935 
314.7686133601692 
-422.5791556012431 
203.1572375601807 
-305.2159525542136 
88.05918498883923 
-489.3117771008883 
315.78200462238385 
-452.74620117503684 
257.0205450768329 
-375.2407753889348 
165.6574153443816 
-276.0029952900709 
65.07807155660777 
-496.5594059503151 
319.334867154879 
-450.3298765535675 
248.42394826746064 
-362.0692017189916 
150.5359216367704 
-261.62266829901625 
53.39471584843574 
