-1152.8239279141212 
-1152.823927914121 
-1152.823927914121 
-1152.823927914121 
-1152.823927914121 
-1152.823927914121 
-1152.823927914121 
-1152.823927914121 
-1152.823927914121 
-1152.823927914121 
-1152.823927914121 
-1152.823927914121 
-1152.823927914121 
-1152.823927914121 
-1152.823927914121 
-1152.823927914121 
-1152.823927914121 
-1152.823927914121 
-1152.823927914121 
-1152.823927914121 
-1152.823927914121 
-1152.823927914121 
-1152.823927914121 
-1152.823927914121 
-1152.823927914121 
-1152.823927914121 
-1152.823927914121 
-1152.823927914121 
-1152.823927914121 
-1152.823927914121 
-1152.823927914121 
-1152.823927914121 
-1152.823927914121 
-1152.823927914121 
-1152.823927914121 
-1152.823927914121 
-1152.823927914121 
-1152.823927914121 
-1152.823927914121 
-1152.823927914121 
-1152.823927914121 
-1152.823927914121 
-1152.823927914121 
-1152.823927914121 
-1152.823927914121 
-1152.823927914121 
-1152.823927914121 
-1152.823927914121 
-1152.823927914121 
-1152.823927914121 
-1152.823927914121 
-1152.823927914121 
-1152.823927914121 
-1152.823927914121 
-1152.823927914121 
-1152.823927914121 
-1152.823927914121 
-1152.823927914121 
-1152.823927914121 
-1152.823927914121 
-1152.823927914121 
-1152.823927914121 
-1152.823927914121 
-1152.823927914121 
