-1053.570667032989 
828.152149379101 
-883.2195212931545 
584.6608663814661 
-612.7327218305597 
329.6825965047896 
-401.30707730802163 
170.8973440297584 
-830.8176450850588 
623.0274280808289 
-708.7370276790898 
446.66246018420213 
-509.83751636842544 
255.2253653635851 
-346.37150182050453 
127.3133433012554 
-685.5235792307418 
491.47906959650953 
-600.8807158590455 
366.30963273696784 
-454.5169698688492 
218.0464577545427 
-319.0159044990924 
102.95315246358503 
-710.9060710490547 
518.6894391772736 
-630.8625561300147 
398.3585079650194 
-486.15936647793893 
245.7957709065721 
-339.66576638244464 
114.81401526585209 
-701.2546884218585 
511.585120586941 
-627.9685102837766 
399.91188054060973 
-490.9266119352484 
251.52662361983505 
-343.8877390423994 
115.6624587026813 
-575.8153612260257 
394.6432644974536 
-526.0544523259653 
316.43754987375223 
-426.02199832797663 
202.67358352063326 
-307.05315240611543 
86.55215857465704 
-490.1588057172816 
313.41016921105086 
-452.94247357543765 
253.7981642837384 
-374.58615082287076 
161.70805663754805 
-274.818273538723 
60.87950633955082 
-498.3302674963836 
318.7579321743476 
-453.61512909249086 
249.3948426858215 
-366.0599122102293 
150.86758240479426 
-263.65817918345243 
50.97331782891399 
