-1049.5394376894833 
824.4696584385604 
-876.7900855124018 
577.8262557008934 
-603.4159187237619 
321.1741079972761 
-392.0968419170934 
164.30292684203908 
-830.6324042943197 
623.8159549876796 
-707.8760121421932 
446.6700216681297 
-508.4467805419498 
255.21566900222894 
-345.53787040952443 
128.27302996733823 
-685.820549758471 
493.26900253234646 
-601.9183121207398 
369.24635795366146 
-456.9459906440984 
222.38623030347833 
-322.59386639468556 
107.94320820180371 
-705.9336164692928 
515.3094694878002 
-626.887910284752 
396.45969129660773 
-483.94028103329435 
245.7145283570651 
-339.14180752850666 
116.16743339327522 
-691.8911724403576 
503.8393141484202 
-619.6741457363814 
393.75563562028606 
-484.5364235767528 
247.4095466929951 
-339.5488315139128 
113.53971712493734 
-568.0040516405131 
388.5352781046873 
-519.5549529223525 
312.2639616740034 
-421.76765983113626 
200.74211701611 
-304.7936018017173 
86.22451599224581 
-485.84881042007953 
310.66535813409286 
-449.5674930957374 
252.47485168714041 
-372.9379760698116 
162.20251444088706 
-274.8556511005896 
62.716575364215416 
-494.30057434037224 
315.92232970889637 
-449.51556881076687 
246.64305928170378 
-362.42673247257505 
149.14016936674096 
-261.62679639587054 
51.236113890045694 
