-1045.9444247450824 
820.9093405864847 
-869.3033318762556 
570.3697107462328 
-594.2147796895641 
315.1210260403894 
-386.82940808178023 
163.19976972064416 
-830.1700804228977 
625.044956297172 
-707.5328330150013 
448.1070356099043 
-508.3798166809307 
256.90810721320463 
-345.5448383348025 
129.69444928905082 
-685.0197855515916 
495.12908057218334 
-603.6751244273523 
374.07449473434446 
-460.846588472244 
227.73836753721153 
-325.27286383395375 
110.7804259678027 
-700.9796832771256 
512.5707346954644 
-623.513634121463 
395.9926558913873 
-483.0106227679712 
247.2819032771774 
-339.4000068878011 
117.96609021254838 
-685.8392553533015 
499.6044991415959 
-614.1925301283849 
390.64232164030375 
-480.7524541978181 
246.3726571264002 
-337.8674728431969 
114.29773427350887 
-565.524996115843 
388.0402703381661 
-517.9233305021377 
312.796485222221 
-421.01867235326114 
201.84985020081606 
-304.3263509057227 
87.42319918482848 
-485.761854097152 
312.4072334062466 
-449.907409604617 
254.66240200611642 
-373.52069047487123 
164.33159948192474 
-275.116421857516 
64.36645631145927 
-493.00872749834804 
316.0014587470403 
-447.5636211189116 
246.12136794119826 
-360.3483883273396 
149.13474482019416 
-260.5737096785226 
52.433620987824014 
