-1045.9876632957655 
820.9721537359163 
-869.4368562374282 
570.4101341593308 
-594.1897069223327 
315.00047515851895 
-386.781112932573 
163.18828881918935 
-830.1684785025608 
625.0001381458214 
-707.5281198540455 
448.07901682720546 
-508.40865228755047 
256.90488860758825 
-345.57021450139075 
129.66848263954304 
-685.0381134514938 
495.08090622966614 
-603.6472833800403 
374.03004873035553 
-460.8860792035535 
227.76634984912653 
-325.32574563490743 
110.76216889524916 
-701.0389338665137 
512.5971429043543 
-623.5733159336822 
395.99016076977864 
-483.0179664786879 
247.2408894535101 
-339.4110762297254 
117.95849919743519 
-685.8585632868393 
499.60295102070774 
-614.2412619063053 
390.6408138048127 
-480.7611569895437 
246.32396578239394 
-337.861780835124 
114.27278724223369 
-565.5016750572933 
387.97175796141005 
-517.8971370487161 
312.7567170199441 
-421.04752047269386 
201.85128857597573 
-304.35129955533125 
87.3887409287215 
-485.778681418625 
312.3745403835742 
-449.9031923556709 
254.6231817053058 
-373.5347876170732 
164.3215734488773 
-275.14732894820617 
64.3510465738861 
-493.05299083042934 
316.01488983651797 
-447.6128435111646 
246.10979988279126 
-360.34660746636894 
149.08426840579398 
-260.5760414822585 
52.4192845440682 
